{
  "id": 1,
  "name": "PolyCoin #1",
  "description": "Polytech Design #1/60",
  "image": "https://gateway.pinata.cloud/ipfs/QmZAbL74p3YTt8szRDVVpvJhkFpzKvccaq2FrUtwqVcTFa/1.png",
  "date": 1648771200,
  "attributes": [
    {
      "trait_type": "Text Color",
      "value": "Black"
    },
    {
      "trait_type": "Background Color",
      "value": "Gradient #1"
    },
    {
      "trait_type": "Language",
      "value": "Ukrainian"
    },
    {
      "trait_type": "Special Edition",
      "value": false
    }
  ]
}
