{
  "id": 48,
  "name": "PolyCoin #48",
  "description": "Polytech Design #48/60",
  "image": "https://gateway.pinata.cloud/ipfs/QmZAbL74p3YTt8szRDVVpvJhkFpzKvccaq2FrUtwqVcTFa/48.png",
  "date": 1648771200,
  "attributes": [
    {
      "trait_type": "Text Color",
      "value": "Green"
    },
    {
      "trait_type": "Background Color",
      "value": "White"
    },
    {
      "trait_type": "Language",
      "value": "English"
    },
    {
      "trait_type": "Special Edition",
      "value": false
    }
  ]
}
