{
  "id": 26,
  "gen": "Gen #0",
  "name": "PolyCoin #26",
  "description": "Polytech Design #26/66",
  "date": 1648841512,
  "attributes": [
    {
      "trait_type": "Text Color",
      "value": "Red"
    },
    {
      "trait_type": "Background Color",
      "value": "Black"
    },
    {
      "trait_type": "Language",
      "value": "Ukrainian"
    },
    {
      "trait_type": "Special Edition",
      "value": false
    }
  ]
}
