{
  "id": 22,
  "gen": "Gen #0",
  "name": "PolyCoin #22",
  "description": "Polytech Design #22/66",
  "date": 1648831101,
  "attributes": [
    {
      "trait_type": "Text Color",
      "value": "Green"
    },
    {
      "trait_type": "Background Color",
      "value": "Black"
    },
    {
      "trait_type": "Language",
      "value": "Ukrainian"
    },
    {
      "trait_type": "Special Edition",
      "value": false
    }
  ]
}
