{
  "id": 1,
  "gen": "Gen #0",
  "name": "PolyCoin #1",
  "description": "Polytech Design #1/66",
  "date": 1648807354,
  "attributes": [
    {
      "trait_type": "Text Color",
      "value": "Black"
    },
    {
      "trait_type": "Background Color",
      "value": "White"
    },
    {
      "trait_type": "Language",
      "value": "English"
    },
    {
      "trait_type": "Special Edition",
      "value": false
    }
  ]
}
