{
  "id": 42,
  "gen": "Gen #1",
  "name": "PolyCoin #42",
  "description": "Polytech Design #42/66",
  "date": 1648805661,
  "attributes": [
    {
      "trait_type": "Text Color",
      "value": "Black"
    },
    {
      "trait_type": "Background Color",
      "value": "Gradient #7"
    },
    {
      "trait_type": "Language",
      "value": "Ukrainian"
    },
    {
      "trait_type": "Special Edition",
      "value": false
    }
  ]
}
