{
  "id": 27,
  "gen": "Gen #0",
  "name": "PolyCoin #27",
  "description": "Polytech Design #27/66",
  "date": 1648836006,
  "attributes": [
    {
      "trait_type": "Text Color",
      "value": "Yellow"
    },
    {
      "trait_type": "Background Color",
      "value": "Black"
    },
    {
      "trait_type": "Language",
      "value": "English"
    },
    {
      "trait_type": "Special Edition",
      "value": false
    }
  ]
}
