{
  "id": 34,
  "gen": "Gen #1",
  "name": "PolyCoin #34",
  "description": "Polytech Design #34/66",
  "date": 1648800240,
  "attributes": [
    {
      "trait_type": "Text Color",
      "value": "Black"
    },
    {
      "trait_type": "Background Color",
      "value": "Gradient #3"
    },
    {
      "trait_type": "Language",
      "value": "Ukrainian"
    },
    {
      "trait_type": "Special Edition",
      "value": false
    }
  ]
}
