{
  "id": 55,
  "gen": "Gen #1",
  "name": "PolyCoin #55",
  "description": "Polytech Design #55/66",
  "date": 1648775756,
  "attributes": [
    {
      "trait_type": "Text Color",
      "value": "White"
    },
    {
      "trait_type": "Background Color",
      "value": "Gradient #7"
    },
    {
      "trait_type": "Language",
      "value": "English"
    },
    {
      "trait_type": "Special Edition",
      "value": false
    }
  ]
}
